{
  "project_info": {
    "project_number": "419535405467",
    "firebase_url": "https://bookie-d2765.firebaseio.com",
    "project_id": "bookie-d2765",
    "storage_bucket": "bookie-d2765.appspot.com"
  },
  "client": [
    {
      "client_info": {
        "mobilesdk_app_id": "1:419535405467:android:396901e28fd7b2fe",
        "android_client_info": {
          "package_name": "com.bookiereact"
        }
      },
      "oauth_client": [
        {
          "client_id": "419535405467-b8s44vo4d8ljua4khq7fmt021p57bva3.apps.googleusercontent.com",
          "client_type": 3
        },
        {
          "client_id": "419535405467-b8s44vo4d8ljua4khq7fmt021p57bva3.apps.googleusercontent.com",
          "client_type": 3
        }
      ],
      "api_key": [
        {
          "current_key": "AIzaSyC0TP_R-esnRIXAyDIZxZwPnZtNdpDr69g"
        }
      ],
      "services": {
        "analytics_service": {
          "status": 1
        },
        "appinvite_service": {
          "status": 1,
          "other_platform_oauth_client": []
        },
        "ads_service": {
          "status": 2
        }
      }
    }
  ],
  "configuration_version": "1"
}